Mini-Project 02 - How Do You Do ‘You Do You’? – STA 9750 Submission Material
…
# A tibble: 1 × 1
  total_hours
        <dbl>
1      22060.

Code

resp |>
  inner_join(rost, join_by(participant_id == participant_id))

# A tibble: 50,000 × 12
   participant_id time_alone survey_year occ_code month survey_weight
            <dbl>      <dbl>       <dbl>    <dbl> <dbl>         <dbl>
 1        2.00e13        525        2003     2310     1      8155463.
 2        2.00e13        525        2003     2310     1      8155463.
 3        2.00e13        525        2003     2310     1      8155463.
 4        2.00e13          0        2003     4850     1      1735323.
 5        2.00e13          0        2003     4850     1      1735323.
 6        2.00e13          0        2003     4850     1      1735323.
 7        2.00e13          0        2003     4850     1      1735323.
 8        2.00e13        475        2003     4600     1      3830527.
 9        2.00e13        475        2003     4600     1      3830527.
10        2.00e13        350        2003       -1     1      6622023.
# ℹ 49,990 more rows
# ℹ 6 more variables: has_children <chr>, marital_status <chr>,
#   employment_status <chr>, is_college_student <lgl>, is_retired <lgl>,
#   sex <chr>
…
